20

4
Quinton Brooks
Kenya Fields
Lauryn Marshall
Anabella Kennedy
3 4 1 2
3 4 1 2
2 4 1 3
3 1 2 4
1 4 3 2

2
Wyatt Walker
Matilda Torres
2 1
1 2
1 2
2 1
1 2
2 1
2 1
2 1
2 1
1 2

8
Autumn Mcintyre
Gilberto Gutierrez
Megan Bond
Ivy Lara
Marisol Sanders
Nyasia Myers
Kyra Richmond
Fatima Proctor
4 7 1 6 8 5 3 2
5 2 3 8 4 7 6 1
1 7 6 3 2 8 4 5
7 5 6 3 4 2 8 1
2 6 8 5 4 1 7 3
3 1 2 7 8 6 5 4
2 3 1 7 8 4 6 5
4 2 5 1 7 8 6 3
5 6 2 8 3 7 1 4

9
Cloe Alvarez
Olivia Frank
Mallory Bates
Desmond Zhang
Lindsay Roman
Denzel Richardson
Audrey Salas
Joy Frost
Madison Leblanc
9 8 2 4 3 6 7 1 5
2 4 1 3 7 8 5 9 6
1 4 3 5 7 2 8 6 9
7 1 3 4 6 8 2 5 9

8
Marin Duarte
London Bush
Sheldon Chambers
Lewis Castillo
Kaylen Hooper
Maddox Romeroz
Maia Hale
Alejandra Woods
5 4 8 1 6 7 2 3
2 7 5 4 6 1 3 8
7 1 8 4 3 2 6 5
2 8 4 6 3 1 7 5
8 2 3 1 6 5 4 7
4 6 7 2 5 3 1 8
4 2 1 5 6 8 3 7
1 6 4 5 7 8 3 2

5
Ashly Braun
Pranav Delgado
Kierra Morales
Erik Bradley
Alijah Gross
5 4 3 2 1
3 4 5 1 2
4 5 3 1 2
2 5 3 1 4
2 4 5 3 1
5 4 1 2 3
1 5 2 4 3
4 2 3 1 5
5 3 1 4 2
1 2 3 4 5

1
Julio Mccoy
1
1
1
1
1
1
1

10
Sage Small
Mckenna Waller
Regan Sanders
Heidi Benitez
Danika Mooney
Omar Stevenson
Adriana Shaffer
Kiara Walsh
Keenan Jennings
Jerome Wilkerson
5 3 9 1 4 8 7 2 6 10
8 2 7 3 5 1 10 9 4 6
10 6 2 9 5 4 7 3 1 8
1 5 2 9 4 10 3 8 6 7

3
Alyson Carlson
Teagan Kramer
Madilyn Conrad
2 1 3
3 1 2
1 3 2
1 2 3
2 1 3
1 2 3
3 2 1
1 2 3

3
Preston Burns
Prince Kirk
Cristina Randall
3 1 2
1 2 3
2 3 1
1 2 3
3 2 1
1 2 3
1 3 2

8
Cindy Bender
Jaydon Mcdonald
Sonny Ball
Raelynn Compton
Katie Carr
Layla Day
Raina Miranda
Aryana Cherry
8 2 5 1 4 3 7 6
4 1 7 3 8 2 5 6
8 1 6 2 3 4 5 7
1 5 8 2 7 3 6 4

1
Caden Baker
1
1
1
1
1
1
1
1

5
Amya Dalton
Jaylen Clayton
Shaun Hunter
Ciara Griffith
Tyrell Munoz
2 3 5 4 1
1 4 3 2 5
4 3 2 1 5
5 4 2 3 1
2 5 1 3 4
2 3 4 1 5
3 4 1 5 2
5 2 1 3 4
2 5 3 4 1

9
Aaden Williams
Gordon Melendez
Taliyah Livingston
Adam Hebert
Cael Sheppard
Danika Middleton
Janet Steele
Marisa Romero
Larry Schmidt
8 1 5 4 7 3 9 2 6
7 2 6 5 8 4 9 3 1
8 7 3 6 5 1 4 2 9
5 6 7 2 9 3 8 1 4
6 7 5 2 9 8 1 3 4
1 8 5 9 7 3 6 2 4
6 9 5 4 8 3 1 2 7
1 9 2 3 4 6 7 8 5

4
Grant Tran
Allen Carlson
Esteban Wallace
Paul Oneal
4 3 1 2
3 4 1 2
3 4 1 2
4 3 2 1
2 3 1 4
2 1 3 4
3 4 2 1

6
Keegan Wheeler
Rafael York
Makenna Ross
Kyra Downs
Desirae Lloyd
Case Sharp
3 4 6 1 2 5
5 1 3 4 2 6
2 6 1 4 3 5
6 2 5 1 3 4
2 5 1 6 4 3
3 6 5 4 2 1
2 4 5 1 6 3

9
Jaime Walters
Izabelle Erickson
Makenna Shea
Eliana Fitzpatrick
Shania Trujillo
Natalee Orozco
Blaine Newton
Greyson Zavala
Zaniyah Casey
3 2 7 4 5 8 6 1 9
7 4 2 3 1 6 9 5 8
8 7 9 5 1 3 4 2 6
6 3 5 1 9 8 2 4 7
8 6 1 9 7 3 5 2 4
4 1 7 5 6 3 2 8 9
4 1 3 8 5 2 7 6 9
7 2 8 3 1 5 4 9 6
6 1 8 7 3 9 4 5 2
4 6 9 5 8 7 2 1 3

2
Ean Wolfe
Kamron Watkins
1 2
2 1
1 2
2 1
1 2
2 1

5
Monserrat Decker
Alexandra Kramer
Elianna Porter
Dylan Mckenzie
Isabell Arellano
5 1 2 4 3
2 3 5 4 1
2 3 5 1 4
4 1 5 2 3
4 1 5 3 2
5 3 2 4 1
2 3 1 4 5
3 4 1 5 2

1
Killian Mcneil
1
1
1
1
1
1
1
1
1
