20

6
A
B
C
D
E
F
4 3 5 6 1 2
6 2 1 3 4 5
5 6 1 2 3 4
5 6 2 1 4 3
1 5 4 2 6 3
2 3 6 4 1 5
1 5 4 2 3 6
4 2 3 5 6 1
2 3 6 4 1 5
5 6 1 2 4 3
4 6 3 5 1 2

1
A
1
1
1
1
1
1
1
1
1
1
1
1
1
1
1

9
A
B
C
D
E
F
G
H
I
3 5 2 7 1 4 9 6 8
6 3 4 1 7 2 8 5 9

9
A
B
C
D
E
F
G
H
I
4 9 6 2 8 1 7 5 3
9 1 3 6 2 8 7 4 5
8 7 6 9 2 4 5 1 3
1 6 4 2 3 5 7 8 9
3 2 9 4 5 7 8 1 6
4 5 6 1 2 7 8 3 9
6 9 8 2 1 3 7 4 5
1 9 4 3 7 8 2 5 6
3 9 2 4 5 7 1 8 6
5 8 1 3 7 2 6 9 4
2 9 7 5 3 4 6 1 8

3
A
B
C
1 2 3
2 1 3
1 3 2
2 1 3
2 3 1
1 2 3
2 1 3
2 1 3
2 3 1
1 2 3
3 1 2
3 1 2

9
A
B
C
D
E
F
G
H
I
6 1 8 4 5 9 2 7 3
1 8 5 9 6 3 4 7 2
8 4 9 2 5 7 3 1 6

1
A
1
1
1
1
1
1
1
1
1
1
1

2
A
B
2 1

9
A
B
C
D
E
F
G
H
I
6 2 1 8 4 5 9 3 7
2 8 3 9 7 1 6 5 4

2
A
B
1 2
2 1

8
A
B
C
D
E
F
G
H
1 6 2 7 5 4 3 8
6 4 8 5 2 3 7 1
5 4 7 8 1 3 2 6
3 1 4 2 7 5 6 8
7 6 2 1 3 8 4 5
6 1 8 7 5 4 2 3
1 4 6 7 3 2 5 8
8 5 4 7 3 1 6 2
5 3 1 4 8 2 7 6

9
A
B
C
D
E
F
G
H
I
9 8 3 4 1 2 7 5 6
8 9 7 3 2 4 5 1 6
2 3 6 8 7 1 4 9 5

6
A
B
C
D
E
F
1 3 2 5 4 6
4 6 1 5 3 2
6 3 2 1 5 4

4
A
B
C
D
3 2 4 1
1 4 3 2
2 1 4 3
1 4 2 3
3 2 1 4
2 1 4 3
4 2 3 1
1 3 2 4
2 1 4 3
2 4 1 3
3 2 4 1
3 4 1 2
1 2 3 4
4 1 3 2

5
A
B
C
D
E
5 1 2 3 4
4 2 1 5 3
2 1 3 4 5
3 1 5 4 2
4 5 1 3 2
1 2 5 4 3
1 2 4 3 5

3
A
B
C
1 2 3
2 1 3
1 2 3
1 3 2
1 3 2
1 2 3
1 2 3

9
A
B
C
D
E
F
G
H
I
4 6 5 1 8 3 2 7 9
9 1 7 2 8 4 6 3 5
7 9 4 1 8 6 5 3 2
7 1 4 2 3 8 5 6 9
6 9 1 3 8 2 4 7 5
7 5 4 1 8 3 9 6 2
4 3 5 6 2 1 9 8 7
6 3 7 8 5 9 2 1 4
4 2 9 6 8 3 1 5 7
6 3 1 5 7 2 8 9 4
4 8 5 2 3 7 1 6 9
1 4 5 6 2 7 3 9 8
6 9 5 4 2 8 1 3 7
4 6 2 8 1 7 5 9 3
4 6 1 8 2 3 9 7 5

1
A
1
1
1
1
1
1
1
1
1
1
1
1
1
1
1

3
A
B
C
2 1 3

9
A
B
C
D
E
F
G
H
I
8 6 2 3 9 4 5 7 1
3 4 7 1 9 6 8 2 5
2 3 4 9 7 1 8 5 6
5 6 2 7 8 3 9 4 1
6 9 7 8 2 5 1 4 3
3 1 2 8 5 9 6 7 4
