20

5
mot
hai
ba
bon
nam
1 3 2 5 4
4 1 2 3 5
2 4 5 3 1
4 1 2 3 5
1 4 2 3 5
5 2 4 3 1

6
mot
hai
ba
bon
nam
sau
1 5 4 3 6 2
5 4 6 1 2 3
2 1 6 3 5 4
1 6 4 3 2 5
2 1 4 5 3 6
5 2 4 1 3 6
2 6 4 3 5 1
4 2 5 1 3 6
2 6 4 3 1 5
6 5 2 4 1 3
3 5 4 1 2 6
6 4 5 2 3 1

6
mot
hai
ba
bon
nam
sau
4 1 3 6 5 2
4 6 5 2 1 3
6 4 2 5 1 3
1 5 3 4 6 2
6 3 2 5 4 1
3 2 1 4 6 5
1 2 6 5 4 3
1 6 3 4 5 2

4
mot
hai
ba
bon
2 1 3 4
3 4 1 2
1 3 4 2
3 1 2 4
4 1 3 2
3 2 4 1
3 4 2 1
1 2 4 3
1 4 3 2

4
mot
hai
ba
bon
3 4 1 2
4 2 3 1
1 3 2 4
3 4 2 1
1 2 4 3

6
mot
hai
ba
bon
nam
sau
2 3 6 1 4 5
5 1 4 2 6 3
1 6 2 3 4 5
2 5 1 6 4 3
4 1 3 2 5 6

10
mot
hai
ba
bon
nam
sau
bay
tam
chin
muoi
8 1 5 9 6 7 2 10 4 3
4 6 1 7 3 10 9 2 5 8
4 10 6 1 7 3 5 2 8 9
7 3 5 10 2 1 8 4 9 6
10 1 7 9 4 5 8 6 3 2
10 2 5 1 9 7 3 8 6 4
4 3 9 10 8 5 2 7 6 1
1 2 3 4 5 6 7 8 9 10
5 2 3 1 4 8 7 9 10 6

2
mot
hai
1 2
2 1
1 2
1 2
2 1
1 2
2 1
1 2

5
mot
hai
ba
bon
nam
3 2 1 4 5
2 1 3 5 4
4 2 3 1 5
3 5 2 4 1
5 2 4 1 3
5 1 3 2 4
3 5 1 4 2
3 2 5 1 4
4 1 5 3 2
3 5 2 4 1
1 5 3 2 4
1 2 4 5 3

3
mot
hai
ba
3 2 1
1 3 2
2 3 1
1 2 3
3 2 1
3 2 1
1 2 3
2 1 3

2
mot
hai
2 1
1 2
1 2
2 1
2 1
1 2
1 2
2 1
1 2
1 2
1 2

5
mot
hai
ba
bon
nam
2 1 4 5 3
4 3 5 1 2
1 3 2 4 5
5 4 2 1 3
1 4 3 5 2
5 2 1 3 4
4 2 5 3 1
3 5 2 1 4
2 3 4 5 1
5 4 3 2 1

1
mot
1

5
mot
hai
ba
bon
nam
1 5 4 2 3

5
mot
hai
ba
bon
nam
4 2 5 3 1
3 5 2 1 4
2 3 4 5 1
5 4 3 2 1
3 2 1 4 5

8
mot
hai
ba
bon
nam
sau
bay
tam
2 3 1 4 5 7 6 8
4 7 1 6 8 5 3 2
5 2 3 8 4 7 6 1
1 7 6 3 2 8 4 5
7 5 6 3 4 2 8 1
2 6 8 5 4 1 7 3
3 1 2 7 8 6 5 4
2 3 1 7 8 4 6 5
4 2 5 1 7 8 6 3
5 6 2 8 3 7 1 4
4 5 6 3 2 1 7 8

1
mot
1
1
1
1
1
1
1
1

2
mot
hai
2 1
1 2
2 1
1 2
2 1
1 2
2 1

4
mot
hai
ba
bon
4 2 3 1
4 3 1 2
3 4 1 2
3 4 1 2
1 2 3 4
4 3 2 1
2 3 1 4
2 1 3 4
3 4 2 1

3
mot
hai
ba
3 2 1
2 1 3
3 1 2
1 3 2
1 2 3
2 1 3
1 2 3
1 2 3
3 2 1
1 2 3
2 1 3
